
/***

glpk_ll.i - (c) Mark Poolman 2008 onwards.
swig interface file for glpk_ll, low-level interface for python and the glpk library of
Andrew Makhorin (mao AT gnu DOT org) which can be found at www.gnu.org/software/glpk


This module is still experimental and is

  *************************   NOT TO BE REDISTRIBUTED  ***************************

without the prior consent of the author.


***/


%module glpk_ll
%{
#define SWIG_FILE_WITH_INIT
#include <glpk.h>
%}
%include "carrays.i"
%array_functions(int, intArray)
%array_functions(double, doubleArray)
%ignore glp_vprintf ;
%include "/usr/include/glpk.h"

